…
# each row respresent a single product from an instacart order. Variables include identifiers for user, order, and product; the order in which each product was added to the cart. There are several order-level variables, describing the day and time of the order, and number of days since prior order. Then there are several item-specific variables, describing the product name (e.g. Yogurt, Avocado), department (e.g. dairy and eggs, produce), and aisle (e.g. yogurt, fresh fruits), and whether the item has been ordered by this user in the past. 
```

In total, there are 39123 products found in 131209 orders from 131209
distinct users.

``` r
# Below is a table summarizing the number of items ordered from aisle. In total, there are 134 aisles, with fresh vegetables and fresh fruits holding the most items ordered by far.

instacart %>% 
  count(aisle) %>% 
  arrange(desc(n))
```

    ## # A tibble: 134 × 2
    ##    aisle                              n
    ##    <chr>                          <int>
    ##  1 fresh vegetables              150609
    ##  2 fresh fruits                  150473
    ##  3 packaged vegetables fruits     78493
    ##  4 yogurt                         55240
    ##  5 packaged cheese                41699
    ##  6 water seltzer sparkling water  36617
    ##  7 milk                           32644
    ##  8 chips pretzels                 31269
    ##  9 soy lactosefree                26240
    ## 10 bread                          23635
    ## # … with 124 more rows
…
  accelerometer = subset(acceler, select = -activity_num)
  
# create weekday vs. weekend variable
 accelerometer %>%
   mutate(day_type = case_when(day == 'Saturday' ~ 'weekend', day == 'Sunday' ~ 'weekend', TRUE ~ 'weekday'))
```

    ## # A tibble: 50,400 × 5
    ##     week day_id day    activity day_type
    ##    <dbl>  <dbl> <chr>     <dbl> <chr>   
    ##  1     1      1 Friday     88.4 weekday 
    ##  2     1      1 Friday     82.2 weekday 
    ##  3     1      1 Friday     64.4 weekday 
    ##  4     1      1 Friday     70.0 weekday 
    ##  5     1      1 Friday     75.0 weekday 
    ##  6     1      1 Friday     66.3 weekday 
    ##  7     1      1 Friday     53.8 weekday 
    ##  8     1      1 Friday     47.8 weekday 
    ##  9     1      1 Friday     55.5 weekday 
    ## 10     1      1 Friday     43.0 weekday 
    ## # … with 50,390 more rows
…
